…
    ## Conflicts with tidy packages ----------------------------------------------

    ## filter(): dplyr, stats
    ## lag():    dplyr, stats

5.1.2 NYCFlights 13 - Data Frame containing departed flights from NYC for 2013
------------------------------------------------------------------------------

``` r
# let's view the data frame
flights
```

    ## # A tibble: 336,776 x 19
    ##     year month   day dep_time sched_dep_time dep_delay arr_time
    ##    <int> <int> <int>    <int>          <int>     <dbl>    <int>
    ##  1  2013     1     1      517            515         2      830
    ##  2  2013     1     1      533            529         4      850
    ##  3  2013     1     1      542            540         2      923
    ##  4  2013     1     1      544            545        -1     1004
    ##  5  2013     1     1      554            600        -6      812
    ##  6  2013     1     1      554            558        -4      740
    ##  7  2013     1     1      555            600        -5      913
    ##  8  2013     1     1      557            600        -3      709
    ##  9  2013     1     1      557            600        -3      838
    ## 10  2013     1     1      558            600        -2      753
    ## # ... with 336,766 more rows, and 12 more variables: sched_arr_time <int>,
    ## #   arr_delay <dbl>, carrier <chr>, flight <int>, tailnum <chr>,
    ## #   origin <chr>, dest <chr>, air_time <dbl>, distance <dbl>, hour <dbl>,
    ## #   minute <dbl>, time_hour <dttm>

5.2 Filtering rows with filter()
--------------------------------

``` r
# select flights for the 1st of Jan
filter(flights, month == 1, day == 1)
```

    ## # A tibble: 842 x 19
    ##     year month   day dep_time sched_dep_time dep_delay arr_time
    ##    <int> <int> <int>    <int>          <int>     <dbl>    <int>
    ##  1  2013     1     1      517            515         2      830
    ##  2  2013     1     1      533            529         4      850
    ##  3  2013     1     1      542            540         2      923
    ##  4  2013     1     1      544            545        -1     1004
    ##  5  2013     1     1      554            600        -6      812
    ##  6  2013     1     1      554            558        -4      740
    ##  7  2013     1     1      555            600        -5      913
    ##  8  2013     1     1      557            600        -3      709
    ##  9  2013     1     1      557            600        -3      838
    ## 10  2013     1     1      558            600        -2      753
    ## # ... with 832 more rows, and 12 more variables: sched_arr_time <int>,
    ## #   arr_delay <dbl>, carrier <chr>, flight <int>, tailnum <chr>,
    ## #   origin <chr>, dest <chr>, air_time <dbl>, distance <dbl>, hour <dbl>,
    ## #   minute <dbl>, time_hour <dttm>

``` r
jan1 <- filter(flights, month == 1, day == 1)

(dec25 <- filter(flights, month == 12, day == 25))
```

    ## # A tibble: 719 x 19
    ##     year month   day dep_time sched_dep_time dep_delay arr_time
    ##    <int> <int> <int>    <int>          <int>     <dbl>    <int>
    ##  1  2013    12    25      456            500        -4      649
    ##  2  2013    12    25      524            515         9      805
    ##  3  2013    12    25      542            540         2      832
    ##  4  2013    12    25      546            550        -4     1022
    ##  5  2013    12    25      556            600        -4      730
    ##  6  2013    12    25      557            600        -3      743
    ##  7  2013    12    25      557            600        -3      818
    ##  8  2013    12    25      559            600        -1      855
    ##  9  2013    12    25      559            600        -1      849
    ## 10  2013    12    25      600            600         0      850
    ## # ... with 709 more rows, and 12 more variables: sched_arr_time <int>,
    ## #   arr_delay <dbl>, carrier <chr>, flight <int>, tailnum <chr>,
    ## #   origin <chr>, dest <chr>, air_time <dbl>, distance <dbl>, hour <dbl>,
    ## #   minute <dbl>, time_hour <dttm>
…
# Flights with missing dep_time
miss_flights <- filter(flights, is.na(dep_time))

# Flights missing departure times along with other variables such as dep_delay, arr_time, sched_arr_time might mean canceled flights
```

5.3 Arrange rows with arrange()
-------------------------------

``` r
# arrange function
arrange(flights, year, month, day)
```

    ## # A tibble: 336,776 x 19
    ##     year month   day dep_time sched_dep_time dep_delay arr_time
    ##    <int> <int> <int>    <int>          <int>     <dbl>    <int>
    ##  1  2013     1     1      517            515         2      830
    ##  2  2013     1     1      533            529         4      850
    ##  3  2013     1     1      542            540         2      923
    ##  4  2013     1     1      544            545        -1     1004
    ##  5  2013     1     1      554            600        -6      812
    ##  6  2013     1     1      554            558        -4      740
    ##  7  2013     1     1      555            600        -5      913
    ##  8  2013     1     1      557            600        -3      709
    ##  9  2013     1     1      557            600        -3      838
    ## 10  2013     1     1      558            600        -2      753
    ## # ... with 336,766 more rows, and 12 more variables: sched_arr_time <int>,
    ## #   arr_delay <dbl>, carrier <chr>, flight <int>, tailnum <chr>,
    ## #   origin <chr>, dest <chr>, air_time <dbl>, distance <dbl>, hour <dbl>,
    ## #   minute <dbl>, time_hour <dttm>

``` r
# Use desc() to re-order by a column
arrange(flights, desc(arr_delay))
```

    ## # A tibble: 336,776 x 19
    ##     year month   day dep_time sched_dep_time dep_delay arr_time
    ##    <int> <int> <int>    <int>          <int>     <dbl>    <int>
    ##  1  2013     1     9      641            900      1301     1242
    ##  2  2013     6    15     1432           1935      1137     1607
    ##  3  2013     1    10     1121           1635      1126     1239
    ##  4  2013     9    20     1139           1845      1014     1457
    ##  5  2013     7    22      845           1600      1005     1044
    ##  6  2013     4    10     1100           1900       960     1342
    ##  7  2013     3    17     2321            810       911      135
    ##  8  2013     7    22     2257            759       898      121
    ##  9  2013    12     5      756           1700       896     1058
    ## 10  2013     5     3     1133           2055       878     1250
    ## # ... with 336,766 more rows, and 12 more variables: sched_arr_time <int>,
    ## #   arr_delay <dbl>, carrier <chr>, flight <int>, tailnum <chr>,
    ## #   origin <chr>, dest <chr>, air_time <dbl>, distance <dbl>, hour <dbl>,
    ## #   minute <dbl>, time_hour <dttm>

5.3.1 Exercises
---------------

``` r
# use arrange to sort missing values to start
arrange(flights, desc(is.na(dep_time)))
```

    ## # A tibble: 336,776 x 19
    ##     year month   day dep_time sched_dep_time dep_delay arr_time
    ##    <int> <int> <int>    <int>          <int>     <dbl>    <int>
    ##  1  2013     1     1       NA           1630        NA       NA
    ##  2  2013     1     1       NA           1935        NA       NA
    ##  3  2013     1     1       NA           1500        NA       NA
    ##  4  2013     1     1       NA            600        NA       NA
    ##  5  2013     1     2       NA           1540        NA       NA
    ##  6  2013     1     2       NA           1620        NA       NA
    ##  7  2013     1     2       NA           1355        NA       NA
    ##  8  2013     1     2       NA           1420        NA       NA
    ##  9  2013     1     2       NA           1321        NA       NA
    ## 10  2013     1     2       NA           1545        NA       NA
    ## # ... with 336,766 more rows, and 12 more variables: sched_arr_time <int>,
    ## #   arr_delay <dbl>, carrier <chr>, flight <int>, tailnum <chr>,
    ## #   origin <chr>, dest <chr>, air_time <dbl>, distance <dbl>, hour <dbl>,
    ## #   minute <dbl>, time_hour <dttm>

``` r
# sort flights to find most delayed ones
arrange(flights, desc(arr_delay), desc(dep_delay), dep_time)
```

    ## # A tibble: 336,776 x 19
    ##     year month   day dep_time sched_dep_time dep_delay arr_time
    ##    <int> <int> <int>    <int>          <int>     <dbl>    <int>
    ##  1  2013     1     9      641            900      1301     1242
    ##  2  2013     6    15     1432           1935      1137     1607
    ##  3  2013     1    10     1121           1635      1126     1239
    ##  4  2013     9    20     1139           1845      1014     1457
    ##  5  2013     7    22      845           1600      1005     1044
    ##  6  2013     4    10     1100           1900       960     1342
    ##  7  2013     3    17     2321            810       911      135
    ##  8  2013     7    22     2257            759       898      121
    ##  9  2013    12     5      756           1700       896     1058
    ## 10  2013     5     3     1133           2055       878     1250
    ## # ... with 336,766 more rows, and 12 more variables: sched_arr_time <int>,
    ## #   arr_delay <dbl>, carrier <chr>, flight <int>, tailnum <chr>,
    ## #   origin <chr>, dest <chr>, air_time <dbl>, distance <dbl>, hour <dbl>,
    ## #   minute <dbl>, time_hour <dttm>

``` r
# sort flights to find the fastest flights
arrange(flights, dep_delay)
```

    ## # A tibble: 336,776 x 19
    ##     year month   day dep_time sched_dep_time dep_delay arr_time
    ##    <int> <int> <int>    <int>          <int>     <dbl>    <int>
    ##  1  2013    12     7     2040           2123       -43       40
    ##  2  2013     2     3     2022           2055       -33     2240
    ##  3  2013    11    10     1408           1440       -32     1549
    ##  4  2013     1    11     1900           1930       -30     2233
    ##  5  2013     1    29     1703           1730       -27     1947
    ##  6  2013     8     9      729            755       -26     1002
    ##  7  2013    10    23     1907           1932       -25     2143
    ##  8  2013     3    30     2030           2055       -25     2213
    ##  9  2013     3     2     1431           1455       -24     1601
    ## 10  2013     5     5      934            958       -24     1225
    ## # ... with 336,766 more rows, and 12 more variables: sched_arr_time <int>,
    ## #   arr_delay <dbl>, carrier <chr>, flight <int>, tailnum <chr>,
    ## #   origin <chr>, dest <chr>, air_time <dbl>, distance <dbl>, hour <dbl>,
    ## #   minute <dbl>, time_hour <dttm>

``` r
# flights travelling the longest & shortest
arrange(flights, desc(air_time))
```

    ## # A tibble: 336,776 x 19
    ##     year month   day dep_time sched_dep_time dep_delay arr_time
    ##    <int> <int> <int>    <int>          <int>     <dbl>    <int>
    ##  1  2013     3    17     1337           1335         2     1937
    ##  2  2013     2     6      853            900        -7     1542
    ##  3  2013     3    15     1001           1000         1     1551
    ##  4  2013     3    17     1006           1000         6     1607
    ##  5  2013     3    16     1001           1000         1     1544
    ##  6  2013     2     5      900            900         0     1555
    ##  7  2013    11    12      936            930         6     1630
    ##  8  2013     3    14      958           1000        -2     1542
    ##  9  2013    11    20     1006           1000         6     1639
    ## 10  2013     3    15     1342           1335         7     1924
    ## # ... with 336,766 more rows, and 12 more variables: sched_arr_time <int>,
    ## #   arr_delay <dbl>, carrier <chr>, flight <int>, tailnum <chr>,
    ## #   origin <chr>, dest <chr>, air_time <dbl>, distance <dbl>, hour <dbl>,
    ## #   minute <dbl>, time_hour <dttm>

``` r
arrange(flights, air_time)
```

    ## # A tibble: 336,776 x 19
    ##     year month   day dep_time sched_dep_time dep_delay arr_time
    ##    <int> <int> <int>    <int>          <int>     <dbl>    <int>
    ##  1  2013     1    16     1355           1315        40     1442
    ##  2  2013     4    13      537            527        10      622
    ##  3  2013    12     6      922            851        31     1021
    ##  4  2013     2     3     2153           2129        24     2247
    ##  5  2013     2     5     1303           1315       -12     1342
    ##  6  2013     2    12     2123           2130        -7     2211
    ##  7  2013     3     2     1450           1500       -10     1547
    ##  8  2013     3     8     2026           1935        51     2131
    ##  9  2013     3    18     1456           1329        87     1533
    ## 10  2013     3    19     2226           2145        41     2305
    ## # ... with 336,766 more rows, and 12 more variables: sched_arr_time <int>,
    ## #   arr_delay <dbl>, carrier <chr>, flight <int>, tailnum <chr>,
    ## #   origin <chr>, dest <chr>, air_time <dbl>, distance <dbl>, hour <dbl>,
    ## #   minute <dbl>, time_hour <dttm>

5.4 Select columns with select()
--------------------------------

``` r
select(flights, year, month, day)
```

    ## # A tibble: 336,776 x 3
    ##     year month   day
    ##    <int> <int> <int>
    ##  1  2013     1     1
    ##  2  2013     1     1
    ##  3  2013     1     1
    ##  4  2013     1     1
    ##  5  2013     1     1
    ##  6  2013     1     1
    ##  7  2013     1     1
    ##  8  2013     1     1
    ##  9  2013     1     1
    ## 10  2013     1     1
    ## # ... with 336,766 more rows

``` r
# Select all columns between year and day (inclusive)
select(flights, year:day)
```

    ## # A tibble: 336,776 x 3
    ##     year month   day
    ##    <int> <int> <int>
    ##  1  2013     1     1
    ##  2  2013     1     1
    ##  3  2013     1     1
    ##  4  2013     1     1
    ##  5  2013     1     1
    ##  6  2013     1     1
    ##  7  2013     1     1
    ##  8  2013     1     1
    ##  9  2013     1     1
    ## 10  2013     1     1
    ## # ... with 336,766 more rows

``` r
# Select all columns except those from year to day (inclusive)
select(flights, -(year:arr_time))
```

    ## # A tibble: 336,776 x 12
    ##    sched_arr_time arr_delay carrier flight tailnum origin  dest air_time
    ##             <int>     <dbl>   <chr>  <int>   <chr>  <chr> <chr>    <dbl>
    ##  1            819        11      UA   1545  N14228    EWR   IAH      227
    ##  2            830        20      UA   1714  N24211    LGA   IAH      227
    ##  3            850        33      AA   1141  N619AA    JFK   MIA      160
    ##  4           1022       -18      B6    725  N804JB    JFK   BQN      183
    ##  5            837       -25      DL    461  N668DN    LGA   ATL      116
    ##  6            728        12      UA   1696  N39463    EWR   ORD      150
    ##  7            854        19      B6    507  N516JB    EWR   FLL      158
    ##  8            723       -14      EV   5708  N829AS    LGA   IAD       53
    ##  9            846        -8      B6     79  N593JB    JFK   MCO      140
    ## 10            745         8      AA    301  N3ALAA    LGA   ORD      138
    ## # ... with 336,766 more rows, and 4 more variables: distance <dbl>,
    ## #   hour <dbl>, minute <dbl>, time_hour <dttm>

``` r
# to rename columns
rename(flights, tail_num = tailnum)
```

    ## # A tibble: 336,776 x 19
    ##     year month   day dep_time sched_dep_time dep_delay arr_time
    ##    <int> <int> <int>    <int>          <int>     <dbl>    <int>
    ##  1  2013     1     1      517            515         2      830
    ##  2  2013     1     1      533            529         4      850
    ##  3  2013     1     1      542            540         2      923
    ##  4  2013     1     1      544            545        -1     1004
    ##  5  2013     1     1      554            600        -6      812
    ##  6  2013     1     1      554            558        -4      740
    ##  7  2013     1     1      555            600        -5      913
    ##  8  2013     1     1      557            600        -3      709
    ##  9  2013     1     1      557            600        -3      838
    ## 10  2013     1     1      558            600        -2      753
    ## # ... with 336,766 more rows, and 12 more variables: sched_arr_time <int>,
    ## #   arr_delay <dbl>, carrier <chr>, flight <int>, tail_num <chr>,
    ## #   origin <chr>, dest <chr>, air_time <dbl>, distance <dbl>, hour <dbl>,
    ## #   minute <dbl>, time_hour <dttm>

``` r
# useful to move handful of variables to the start of the data frame
select(flights, time_hour, air_time, dep_time, everything())
```

    ## # A tibble: 336,776 x 19
    ##              time_hour air_time dep_time  year month   day sched_dep_time
    ##                 <dttm>    <dbl>    <int> <int> <int> <int>          <int>
    ##  1 2013-01-01 05:00:00      227      517  2013     1     1            515
    ##  2 2013-01-01 05:00:00      227      533  2013     1     1            529
    ##  3 2013-01-01 05:00:00      160      542  2013     1     1            540
    ##  4 2013-01-01 05:00:00      183      544  2013     1     1            545
    ##  5 2013-01-01 06:00:00      116      554  2013     1     1            600
    ##  6 2013-01-01 05:00:00      150      554  2013     1     1            558
    ##  7 2013-01-01 06:00:00      158      555  2013     1     1            600
    ##  8 2013-01-01 06:00:00       53      557  2013     1     1            600
    ##  9 2013-01-01 06:00:00      140      557  2013     1     1            600
    ## 10 2013-01-01 06:00:00      138      558  2013     1     1            600
    ## # ... with 336,766 more rows, and 12 more variables: dep_delay <dbl>,
    ## #   arr_time <int>, sched_arr_time <int>, arr_delay <dbl>, carrier <chr>,
    ## #   flight <int>, tailnum <chr>, origin <chr>, dest <chr>, distance <dbl>,
    ## #   hour <dbl>, minute <dbl>

5.4.1 Exercises
---------------

``` r
# 2 ways to select
select(flights, dep_time, dep_delay, arr_time, arr_delay)
```

    ## # A tibble: 336,776 x 4
    ##    dep_time dep_delay arr_time arr_delay
    ##       <int>     <dbl>    <int>     <dbl>
    ##  1      517         2      830        11
    ##  2      533         4      850        20
    ##  3      542         2      923        33
    ##  4      544        -1     1004       -18
    ##  5      554        -6      812       -25
    ##  6      554        -4      740        12
    ##  7      555        -5      913        19
    ##  8      557        -3      709       -14
    ##  9      557        -3      838        -8
    ## 10      558        -2      753         8
    ## # ... with 336,766 more rows

``` r
flights[c('dep_time', 'dep_delay', 'arr_time', 'arr_delay')]
```

    ## # A tibble: 336,776 x 4
    ##    dep_time dep_delay arr_time arr_delay
    ##       <int>     <dbl>    <int>     <dbl>
    ##  1      517         2      830        11
    ##  2      533         4      850        20
    ##  3      542         2      923        33
    ##  4      544        -1     1004       -18
    ##  5      554        -6      812       -25
    ##  6      554        -4      740        12
    ##  7      555        -5      913        19
    ##  8      557        -3      709       -14
    ##  9      557        -3      838        -8
    ## 10      558        -2      753         8
    ## # ... with 336,766 more rows

``` r
# what happens if we include name of var in select() multiple times
select(flights, dep_time, dep_time)
```

    ## # A tibble: 336,776 x 1
    ##    dep_time
    ##       <int>
    ##  1      517
    ##  2      533
    ##  3      542
    ##  4      544
    ##  5      554
    ##  6      554
    ##  7      555
    ##  8      557
    ##  9      557
    ## 10      558
    ## # ... with 336,766 more rows
…
